Diagnosis Name,ICD10 Code
Diabetes mellitus type 2 in obese (CMS-HCC),"E11.69, E66.9"
Morbid (severe) obesity due to excess calories (CMS-HCC),E66.01
Morbid obesity (CMS-HCC),E66.01
Morbid obesity due to excess calories (CMS-HCC),E66.01
Morbid obesity with body mass index (BMI) of 40.0 or higher (CMS-HCC),E66.01
Morbid obesity with body mass index (BMI) of 40.0 to 49.9 (CMS-HCC),E66.01
Morbid obesity with body mass index of 40.0-49.9 (CMS-HCC),E66.01
Morbid obesity with body mass index of 50 or higher (CMS-HCC),E66.01
"Morbid obesity, unspecified obesity type (CMS-HCC)",E66.01
Morbidly obese (CMS-HCC),E66.01
"Obesities, morbid (CMS-HCC)",E66.01
"Obesity, Class III, BMI 40-49.9 (morbid obesity) (CMS-HCC)",E66.01
"Obesity, morbid (CMS-HCC)",E66.01
"Obesity, morbid (more than 100 lbs over ideal weight or BMI > 40) (CMS-HCC)",E66.01
"Obesity, morbid, BMI 40.0-49.9 (CMS-HCC)",E66.01
"Obesity, morbid, BMI 50 or higher (CMS-HCC)",E66.01
Severe obesity (BMI >= 40) (CMS-HCC),E66.01
Severe obesity (BMI 35.0-39.9),E66.01
Severe obesity (BMI 35.0-39.9) with comorbidity (CMS-HCC),E66.01
Extreme obesity with respiratory disorder (CMS-HCC),"E66.01, J98.9"
Severe obesity (BMI 35.0-35.9 with comorbidity) (CMS-HCC),"E66.01, Z68.35"
"Morbid obesity with BMI of 40.0-44.9, adult (CMS-HCC)","E66.01, Z68.41"
Morbid obesity with body mass index (BMI) of 40.0 to 44.9 in adult (CMS-HCC),"E66.01, Z68.41"
Morbid obesity with body mass index of 40.0-44.9 in adult (CMS-HCC),"E66.01, Z68.41"
"Morbid obesity with BMI of 45.0-49.9, adult (CMS-HCC)","E66.01, Z68.42"
Morbid obesity with body mass index of 45.0-49.9 in adult (CMS-HCC),"E66.01, Z68.42"
"Morbid obesity with BMI of 50.0-59.9, adult (CMS-HCC)","E66.01, Z68.43"
Morbid obesity with body mass index (BMI) of 50.0 to 59.9 in adult (CMS-HCC),"E66.01, Z68.43"
Morbid obesity with body mass index of 50.0-59.9 in adult (CMS-HCC),"E66.01, Z68.43"
"Morbid obesity with BMI of 60.0-69.9, adult (CMS-HCC)","E66.01, Z68.44"
Morbid obesity with body mass index (BMI) of 60.0 to 69.9 in adult (CMS-HCC),"E66.01, Z68.44"
Morbid obesity with body mass index of 60.0-69.9 in adult (CMS-HCC),"E66.01, Z68.44"
"Morbid obesity with BMI of 70 and over, adult (CMS-HCC)","E66.01, Z68.45"
Morbid childhood obesity with BMI greater than 99th percentile for age (CMS-HCC),"E66.01, Z68.54"
Morbid obesity with body mass index (BMI) greater than 99th percentile for age in childhood (CMS-HCC),"E66.01, Z68.54"
"Class 1 obesity due to excess calories in adult, unspecified BMI, unspecified whether serious comorbidity present",E66.09
"Class 1 obesity due to excess calories with serious comorbidity in adult, unspecified BMI",E66.09
"Class 1 obesity due to excess calories without serious comorbidity in adult, unspecified BMI",E66.09
"Class 2 obesity due to excess calories in adult, unspecified BMI, unspecified whether serious comorbidity present",E66.09
"Class 2 obesity due to excess calories without serious comorbidity in adult, unspecified BMI",E66.09
Non morbid obesity due to excess calories,E66.09
"Obesity due to excess calories in pediatric patient, unspecified BMI, unspecified whether serious comorbidity present",E66.09
"Obesity due to excess calories with serious comorbidity in pediatric patient, unspecified BMI",E66.09
"Obesity due to excess calories with serious comorbidity, unspecified classification",E66.09
"Obesity due to excess calories without serious comorbidity, unspecified classification",E66.09
"Obesity due to excess calories, unspecified classification, unspecified whether serious comorbidity present",E66.09
"Obesity due to excess calories, unspecified obesity severity",E66.09
"Pediatric obesity due to excess calories without serious comorbidity, unspecified BMI",E66.09
"Class 1 obesity due to excess calories with body mass index (BMI) of 30.0 to 30.9 in adult, unspecified whether serious comorbidity present","E66.09, Z68.30"
Class 1 obesity due to excess calories without serious comorbidity with body mass index (BMI) of 31.0 to 31.9 in adult,"E66.09, Z68.31"
Class 1 obesity due to excess calories with body mass index (BMI) of 32.0 to 32.9 in adult,"E66.09, Z68.32"
Class 1 obesity due to excess calories without serious comorbidity with body mass index (BMI) of 32.0 to 32.9 in adult,"E66.09, Z68.32"
Class 1 obesity due to excess calories with serious comorbidity and body mass index (BMI) of 33.0 to 33.9 in adult,"E66.09, Z68.33"
Class 1 obesity due to excess calories with serious comorbidity and body mass index (BMI) of 34.0 to 34.9 in adult,"E66.09, Z68.34"
Class 1 obesity due to excess calories without serious comorbidity with body mass index (BMI) of 34.0 to 34.9 in adult,"E66.09, Z68.34"
"Class 2 obesity due to excess calories with body mass index (BMI) of 35.0 to 35.9 in adult, unspecified whether serious comorbidity present","E66.09, Z68.35"
Class 2 obesity due to excess calories without serious comorbidity with body mass index (BMI) of 36.0 to 36.9 in adult,"E66.09, Z68.36"
"Class 2 obesity due to excess calories with body mass index (BMI) of 37.0 to 37.9 in adult, unspecified whether serious comorbidity present","E66.09, Z68.37"
Class 2 obesity due to excess calories without serious comorbidity with body mass index (BMI) of 37.0 to 37.9 in adult,"E66.09, Z68.37"
"Class 2 obesity due to excess calories with body mass index (BMI) of 38.0 to 38.9 in adult, unspecified whether serious comorbidity present","E66.09, Z68.38"
Class 2 obesity due to excess calories without serious comorbidity with body mass index (BMI) of 39.0 to 39.9 in adult,"E66.09, Z68.39"
"Obesity due to excess calories with body mass index (BMI) greater than 99th percentile for age in pediatric patient, unspecified whether serious comorbidity present","E66.09, Z68.54"
Obesity due to excess calories with body mass index (BMI) in 95th to 98th percentile for age in pediatric patient,"E66.09, Z68.54"
"Obesity due to excess calories with body mass index (BMI) in 95th to 98th percentile for age in pediatric patient, unspecified whether serious comorbidity present","E66.09, Z68.54"
"Obesity due to excess calories with body mass index (BMI) in 99th percentile for age in pediatric patient, unspecified whether serious comorbidity present","E66.09, Z68.54"
Obesity due to excess calories without serious comorbidity with body mass index (BMI) greater than 99th percentile for age in pediatric patient,"E66.09, Z68.54"
Obesity due to excess calories without serious comorbidity with body mass index (BMI) in 95th to 98th percentile for age in pediatric patient,"E66.09, Z68.54"
Obesity due to excess calories without serious comorbidity with body mass index (BMI) in 99th percentile for age in pediatric patient,"E66.09, Z68.54"
"Class 1 drug-induced obesity without serious comorbidity in adult, unspecified BMI",E66.1
Drug-induced obesity,E66.1
Morbid drug-induced obesity,E66.1
Non morbid drug-induced obesity,E66.1
Class 1 drug-induced obesity without serious comorbidity with body mass index (BMI) of 30.0 to 30.9 in adult,"E66.1, Z68.30"
Class 1 drug-induced obesity without serious comorbidity with body mass index (BMI) of 32.0 to 32.9 in adult,"E66.1, Z68.32"
Class 1 drug-induced obesity with serious comorbidity and body mass index (BMI) of 34.0 to 34.9 in adult,"E66.1, Z68.34"
Class 2 drug-induced obesity without serious comorbidity with body mass index (BMI) of 35.0 to 35.9 in adult,"E66.1, Z68.35"
"Class 2 drug-induced obesity with body mass index (BMI) of 36.0 to 36.9 in adult, unspecified whether serious comorbidity present","E66.1, Z68.36"
Class 2 drug-induced obesity without serious comorbidity with body mass index (BMI) of 37.0 to 37.9 in adult,"E66.1, Z68.37"
Class 2 drug-induced obesity without serious comorbidity with body mass index (BMI) of 39.0 to 39.9 in adult,"E66.1, Z68.39"
Class 3 drug-induced obesity with serious comorbidity and body mass index (BMI) of 40.0 to 44.9 in adult (CMS-HCC),"E66.1, Z68.41"
"Class 3 drug-induced obesity with body mass index (BMI) of 50.0 to 59.9 in adult, unspecified whether serious comorbidity present (CMS-HCC)","E66.1, Z68.43"
Hypoventilation associated with obesity (CMS-HCC),E66.2
Hypoventilation associated with obesity syndrome (CMS-HCC),E66.2
Obesity hypoventilation syndrome (CMS-HCC),E66.2
Pickwickian syndrome (CMS-HCC),E66.2
Over weight,E66.3
Overweight,E66.3
Overweight (BMI 25.0-29.9),E66.3
Overweight child,E66.3
Overweight for pediatric patient,E66.3
Overweight with body mass index (BMI) 25.0-29.9,E66.3
"Overweight, pediatric",E66.3
Overweight(278.02),E66.3
Patient overweight,E66.3
Pediatric overweight,E66.3
Severely overweight,E66.3
"Childhood overweight, BMI 85-94.9 percentile","E66.3, Z68.53"
Overweight peds (BMI 85-94.9 percentile),"E66.3, Z68.53"
"Overweight, pediatric, BMI 85.0-94.9 percentile for age","E66.3, Z68.53"
Body mass index (BMI) of 95th to 99th percentile for age in pediatric patient,"E66.3, Z68.54"
Overweight child with BMI >99% for age,"E66.3, Z68.54"
Overweight child with body mass index (BMI) > 99% for age,"E66.3, Z68.54"
"Overweight, pediatric, BMI (body mass index) > 99% for age","E66.3, Z68.54"
"Overweight, pediatric, BMI (body mass index) 95-99% for age","E66.3, Z68.54"
Extreme obesity,E66.8
Other obesity,E66.8
Childhood obesity,E66.9
"Childhood obesity, unspecified BMI, unspecified obesity type, unspecified whether serious comorbidity present",E66.9
Class 1 obesity,E66.9
Class 2 obesity,E66.9
Class 2 obesity with body mass index (BMI) of 35 to 39.9 without comorbidity,E66.9
Mild obesity,E66.9
Mildly obese,E66.9
"Non morbid obesity, unspecified obesity type",E66.9
Obese,E66.9
Obesity,E66.9
Obesity (BMI 30-39.9),E66.9
Obesity (BMI 30.0-34.9),E66.9
Obesity (BMI 35.0-39.9 without comorbidity),E66.9
"Obesity complicating pregnancy, childbirth, or the puerperium, unspecified as to episode of care or not applicable(649.10)",E66.9
Obesity with body mass index 30 or greater,E66.9
Obesity with body mass index greater than 30,E66.9
Obesity with body mass index of 30.0 - 39.9,E66.9
Obesity with body mass index of 30.0-39.9,E66.9
"Obesity without serious comorbidity, unspecified classification, unspecified obesity type",E66.9
"Obesity, childhood",E66.9
"Obesity, Class I, BMI 30-34.9",E66.9
"Obesity, Class I, BMI 30.0-34.9 (see actual BMI)",E66.9
"Obesity, Class II, BMI 35-39.9",E66.9
"Obesity, Class II, BMI 35-39.9, isolated",E66.9
"Obesity, Class II, BMI 35-39.9, isolated (see actual BMI)",E66.9
"Obesity, Class II, BMI 35-39.9, no comorbidity",E66.9
"Obesity, pediatric",E66.9
"Obesity, unspecified",E66.9
"Obesity, unspecified classification, unspecified obesity type, unspecified whether serious comorbidity present",E66.9
"Obesity, unspecified obesity severity, unspecified obesity type",E66.9
Pediatric obesity,E66.9
Simple obesity,E66.9
Super obese,E66.9
Super obesity,E66.9
Nocturnal hypoxemia due to obesity,"E66.9, G47.36"
"Class 1 obesity with body mass index (BMI) of 30.0 to 30.9 in adult, unspecified obesity type, unspecified whether serious comorbidity present","E66.9, Z68.30"
"Class 1 obesity with body mass index (BMI) of 31.0 to 31.9 in adult, unspecified obesity type, unspecified whether serious comorbidity present","E66.9, Z68.31"
"Class 1 obesity with serious comorbidity and body mass index (BMI) of 31.0 to 31.9 in adult, unspecified obesity type","E66.9, Z68.31"
"Class 1 obesity with body mass index (BMI) of 32.0 to 32.9 in adult, unspecified obesity type, unspecified whether serious comorbidity present","E66.9, Z68.32"
"Class 1 obesity without serious comorbidity with body mass index (BMI) of 32.0 to 32.9 in adult, unspecified obesity type","E66.9, Z68.32"
"Class 1 obesity with body mass index (BMI) of 33.0 to 33.9 in adult, unspecified obesity type, unspecified whether serious comorbidity present","E66.9, Z68.33"
"Class 1 obesity without serious comorbidity with body mass index (BMI) of 33.0 to 33.9 in adult, unspecified obesity type","E66.9, Z68.33"
"Class 1 obesity with body mass index (BMI) of 34.0 to 34.9 in adult, unspecified obesity type, unspecified whether serious comorbidity present","E66.9, Z68.34"
"Class 1 obesity without serious comorbidity with body mass index (BMI) of 34.0 to 34.9 in adult, unspecified obesity type","E66.9, Z68.34"
"Class 2 obesity with body mass index (BMI) of 35.0 to 35.9 in adult, unspecified obesity type, unspecified whether serious comorbidity present","E66.9, Z68.35"
"Class 2 obesity with body mass index (BMI) of 36.0 to 36.9 in adult, unspecified obesity type, unspecified whether serious comorbidity present","E66.9, Z68.36"
"Class 2 obesity with body mass index (BMI) of 37.0 to 37.9 in adult, unspecified obesity type, unspecified whether serious comorbidity present","E66.9, Z68.37"
"Class 2 obesity with body mass index (BMI) of 38.0 to 38.9 in adult, unspecified obesity type, unspecified whether serious comorbidity present","E66.9, Z68.38"
"Class 2 obesity with body mass index (BMI) of 39.0 to 39.9 in adult, unspecified obesity type, unspecified whether serious comorbidity present","E66.9, Z68.39"
"Obesity, pediatric, BMI 85th to less than 95th percentile for age","E66.9, Z68.53"
"BMI (body mass index) pediatric, > 99% for age, obese child, tertiary care intervention","E66.9, Z68.54"
"BMI (body mass index), pediatric 95-99% for age, obese child structured weight management/multidisciplinary intervention category","E66.9, Z68.54"
"Body mass index > 99% for age, obese child, tertiary care intervention","E66.9, Z68.54"
"Body mass index 95-99% for age, obese child weight manage/multidiscipl","E66.9, Z68.54"
"Childhood obesity, BMI 95-100 percentile","E66.9, Z68.54"
Obesity peds (BMI >=95 percentile),"E66.9, Z68.54"
"Obesity with body mass index (BMI) greater than 99th percentile for age in pediatric patient, unspecified obesity type, unspecified whether serious comorbidity present","E66.9, Z68.54"
Obesity with body mass index (BMI) in 98th to 99th percentile for age in pediatric patient,"E66.9, Z68.54"
"Obesity, pediatric, BMI 95th to 98th percentile for age","E66.9, Z68.54"
Obesity with sleep apnea,"G47.30, E66.9"
Restrictive lung disease secondary to obesity,"J98.4, E66.9"
"Maternal morbid obesity, antepartum (CMS-HCC)","O99.210, E66.01"
"Maternal morbid obesity, antepartum, unspecified trimester (CMS-HCC)","O99.210, E66.01"
"Obesity complicating pregnancy, childbirth, or the puerperium, antepartum condition or complication(649.13)","O99.210, E66.9"
"Maternal morbid obesity in first trimester, antepartum (CMS-HCC)","O99.211, E66.01"
"Maternal morbid obesity, antepartum, first trimester (CMS-HCC)","O99.211, E66.01"
"Obesity in pregnancy, first trimester","O99.211, E66.9"
"Maternal morbid obesity in second trimester, antepartum (CMS-HCC)","O99.212, E66.01"
"Maternal morbid obesity, antepartum, second trimester (CMS-HCC)","O99.212, E66.01"
"Maternal obesity without hypertension, second trimester","O99.212, E66.9"
"Obesity in pregnancy, second trimester","O99.212, E66.9"
"Maternal morbid obesity in third trimester, antepartum (CMS-HCC)","O99.213, E66.01"
"Maternal morbid obesity, antepartum, third trimester (CMS-HCC)","O99.213, E66.01"
"Maternal obesity without hypertension, third trimester","O99.213, E66.9"
"Obesity in pregnancy, third trimester","O99.213, E66.9"
